<mxfile host="65bd71144e" modified="2021-01-17T22:01:14.479Z" agent="5.0 (Macintosh; Intel Mac OS X 10_14_6) AppleWebKit/537.36 (KHTML, like Gecko) Code/1.52.1 Chrome/83.0.4103.122 Electron/9.3.5 Safari/537.36" etag="pORzxIZuNWOD5KQJaRlJ" version="13.10.0" type="embed">
    <diagram id="6MAw8OHVLp_5MxiuHRNv" name="Page-1">
        <mxGraphModel dx="738" dy="535" grid="1" gridSize="10" guides="1" tooltips="1" connect="1" arrows="1" fold="1" page="0" pageScale="1" pageWidth="850" pageHeight="1100" math="0" shadow="0">
            <root>
                <mxCell id="0"/>
                <mxCell id="1" parent="0"/>
                <mxCell id="48" value="" style="group;perimeterSpacing=0;fillColor=#ffffff;rounded=1;" parent="1" vertex="1" connectable="0">
                    <mxGeometry x="80" y="230" width="420" height="140" as="geometry"/>
                </mxCell>
                <mxCell id="43" value="" style="rounded=1;whiteSpace=wrap;html=1;fontColor=#000000;opacity=90;align=center;fillColor=#FFFFFF;" parent="48" vertex="1">
                    <mxGeometry width="420" height="140" as="geometry"/>
                </mxCell>
                <mxCell id="45" value="Deny" style="html=1;shadow=0;dashed=0;shape=mxgraph.bootstrap.rrect;rSize=5;strokeColor=none;strokeWidth=1;fillColor=#DB2843;fontColor=#FFFFFF;whiteSpace=wrap;align=center;verticalAlign=middle;spacingLeft=0;fontStyle=0;fontSize=16;spacing=5;opacity=90;" parent="48" vertex="1">
                    <mxGeometry x="40" y="50" width="90" height="40" as="geometry"/>
                </mxCell>
                <mxCell id="44" value="Approve" style="html=1;shadow=0;dashed=0;shape=mxgraph.bootstrap.rrect;rSize=5;strokeColor=none;strokeWidth=1;fillColor=#33A64C;fontColor=#FFFFFF;whiteSpace=wrap;align=center;verticalAlign=middle;spacingLeft=0;fontStyle=0;fontSize=16;spacing=5;opacity=90;" parent="48" vertex="1">
                    <mxGeometry x="165" y="50" width="90" height="40" as="geometry"/>
                </mxCell>
                <mxCell id="70" value="More" style="html=1;shadow=0;dashed=0;shape=mxgraph.bootstrap.rrect;rSize=5;strokeColor=none;strokeWidth=1;fillColor=#0085FC;fontColor=#FFFFFF;whiteSpace=wrap;align=center;verticalAlign=middle;spacingLeft=0;fontStyle=0;fontSize=16;spacing=5;opacity=90;width=50px;" parent="48" vertex="1">
                    <mxGeometry x="290" y="50" width="90" height="40" as="geometry"/>
                </mxCell>
                <mxCell id="5" value="" style="rounded=1;whiteSpace=wrap;html=1;fillColor=#FFFFFF;fontFamily=Source Sans Pro;fontSource=https%3A%2F%2Ffonts.googleapis.com%2Fcss%3Ffamily%3DSource%2BSans%2BPro;fontStyle=1" parent="1" vertex="1">
                    <mxGeometry x="80" y="12" width="420" height="140" as="geometry"/>
                </mxCell>
                <mxCell id="8" value="&lt;font style=&quot;font-size: 12px ; line-height: 100%&quot;&gt;Item Source&lt;/font&gt;" style="rounded=1;whiteSpace=wrap;html=1;arcSize=50;strokeColor=none;strokeWidth=1;fillColor=#33A64C;fontColor=#FFFFFF;whiteSpace=wrap;align=center;verticalAlign=middle;spacingLeft=0;fontStyle=1;fontSize=14;spacing=10;" parent="1" vertex="1">
                    <mxGeometry x="90" y="22" width="90" height="17.14" as="geometry"/>
                </mxCell>
                <mxCell id="47" value="&lt;font style=&quot;font-size: 12px&quot;&gt;u/exampleuser&lt;/font&gt;" style="rounded=1;whiteSpace=wrap;html=1;arcSize=50;strokeColor=none;strokeWidth=1;fillColor=#0085FC;fontColor=#FFFFFF;whiteSpace=wrap;align=center;verticalAlign=middle;spacingLeft=0;fontStyle=1;fontSize=14;spacing=10;opacity=90;" parent="1" vertex="1">
                    <mxGeometry x="190" y="22" width="105" height="17.14" as="geometry"/>
                </mxCell>
                <mxCell id="61" value="" style="group" parent="1" vertex="1" connectable="0">
                    <mxGeometry x="80" y="42" width="420" height="101.43" as="geometry"/>
                </mxCell>
                <mxCell id="57" value="" style="rounded=0;whiteSpace=wrap;html=1;fontColor=#000000;opacity=90;align=center;fillColor=none;strokeColor=none;" parent="61" vertex="1">
                    <mxGeometry width="420" height="101.43" as="geometry"/>
                </mxCell>
                <mxCell id="58" value="&lt;font face=&quot;Source Sans Pro&quot; data-font-src=&quot;https://fonts.googleapis.com/css?family=Source+Sans+Pro&quot; size=&quot;1&quot;&gt;&lt;b style=&quot;font-size: 16px&quot;&gt;Karamelle Chunk&lt;/b&gt;&lt;/font&gt;" style="text;html=1;resizable=0;autosize=1;align=center;verticalAlign=middle;points=[];fillColor=none;rounded=0;fontColor=#000000;" parent="61" vertex="1">
                    <mxGeometry x="20" y="41.24132653846152" width="130" height="20" as="geometry"/>
                </mxCell>
                <mxCell id="59" value="" style="line;strokeWidth=2;direction=south;html=1;fillColor=#FFFFFF;fontColor=#000000;align=left;strokeColor=#E6E6E6;" parent="61" vertex="1">
                    <mxGeometry x="165" y="10.592189999999988" width="10" height="80.2523076923077" as="geometry"/>
                </mxCell>
                <mxCell id="60" value="&lt;font face=&quot;Source Sans Pro&quot; data-font-src=&quot;https://fonts.googleapis.com/css?family=Source+Sans+Pro&quot; style=&quot;font-size: 12px ; line-height: 140%&quot;&gt;A chunk of Karamelle itself, this&lt;br&gt;reagent is a key component of KM&lt;br&gt;crafting recipies.&amp;nbsp;&lt;font color=&quot;#0000cc&quot; style=&quot;font-size: 12px&quot;&gt;http://www.wizard&lt;br&gt;101central.com/wiki/Reagent:&lt;br&gt;Karamelle_Chunk. &lt;/font&gt;This is further...&lt;br&gt;&lt;/font&gt;" style="text;html=1;resizable=0;autosize=1;align=left;verticalAlign=middle;points=[];fillColor=none;rounded=0;fontColor=#000000;fontStyle=0" parent="61" vertex="1">
                    <mxGeometry x="190" y="6.244383846153838" width="190" height="90" as="geometry"/>
                </mxCell>
                <mxCell id="78" style="edgeStyle=orthogonalEdgeStyle;rounded=0;orthogonalLoop=1;jettySize=auto;html=1;labelBackgroundColor=#000000;strokeColor=#000000;fontColor=#000000;" parent="1" source="73" target="70" edge="1">
                    <mxGeometry relative="1" as="geometry"/>
                </mxCell>
                <mxCell id="73" value="Opens DJFormDialog for the&lt;br&gt;datapoint, with new buttons&lt;br&gt;of confirm, deny" style="text;html=1;resizable=0;autosize=1;align=center;verticalAlign=middle;points=[];fillColor=none;strokeColor=none;rounded=0;fontColor=#000000;" parent="1" vertex="1">
                    <mxGeometry x="540" y="275" width="170" height="50" as="geometry"/>
                </mxCell>
                <mxCell id="75" value="Data moderation card" style="text;html=1;resizable=0;autosize=1;align=center;verticalAlign=middle;points=[];fillColor=none;strokeColor=none;rounded=0;fontColor=#000000;" parent="1" vertex="1">
                    <mxGeometry x="510" y="20" width="130" height="20" as="geometry"/>
                </mxCell>
                <mxCell id="76" value="Hover overlay,&lt;br&gt;partial transparency" style="text;html=1;resizable=0;autosize=1;align=center;verticalAlign=middle;points=[];fillColor=none;strokeColor=none;rounded=0;fontColor=#000000;" parent="1" vertex="1">
                    <mxGeometry x="500" y="225" width="120" height="30" as="geometry"/>
                </mxCell>
                <mxCell id="77" value="Description limited to 300 characters" style="text;html=1;resizable=0;autosize=1;align=center;verticalAlign=middle;points=[];fillColor=none;strokeColor=none;rounded=0;fontColor=#000000;" parent="1" vertex="1">
                    <mxGeometry x="540" y="90" width="210" height="20" as="geometry"/>
                </mxCell>
            </root>
        </mxGraphModel>
    </diagram>
</mxfile>